Working with ODK Central: connect, monitor, and pull form data (for data analysts) • erifunctions
…
data_con <- get_azure_storage_connection(storage_name = "data")

eri_odk_register(
  project_id = project_id,
  form_id    = form_id,
  country    = "uga",
  disease    = "demo",
  server_url = "https://your-odk-server.org/",
  data_con   = data_con
)
#> ✔ Registered "eri_test_river_prospection" (uga/demo) on <https://your-odk-server.org/>.

eri_odk_list_registered(data_con = data_con)
#> ℹ 5 registered forms.
#> # A tibble: 5 × 9
#>   server_url               project_id form_id                    form_display_name … country disease added_by  added_at   last_synced
#>   <chr>                         <int> <chr>                      <chr>                <chr>   <chr>   <chr>     <chr>      <chr>
#> 1 https://your-odk-server…         11 eri_test_river_prospection ERI Test, River …   uga     demo    your.name 2026-06-29 NA
#> # ℹ 4 more rows, the registry is shared, so you also see teammates' registered forms
…
